{
    "name": "DigitalRightsConsortium",
    "version": "1.0.0",
    "channels": {
      "digitalrightschannel": {
        "orderers": ["orderer.media.com"],
        "peers": {
          "content.com": {},
          "distributor.com": {}
        }
      }
    },
    "organizations": {
      "ContentCreator": {
        "mspid": "ContentcreatorMSP",
        "peers": ["content.com"]
      },
      "Distributor": {
        "mspid": "DistributorMSP",
        "peers": ["distributor.com"]
      }
    },
    "orderers": {
      "orderer.media.com": {
        "url": "grpc://orderer.media.com:7050",
        "grpcOptions": {
          "ssl-target-name-override": "orderer.media.com"
        }
      }
    },
    "peers": {
      "content.com": {
        "url": "grpc://content.com:7051"
      },
      "distributor.com": {
        "url": "grpc://distributor.com:7051"
      }
     
    }
  }
  